sim/test_uart_tx/test_uart_tx.sim/sim_1/behav/xsim/uart_tx.vcd
$date
   Thu Jul  2 15:36:45 2026
$end

$version
  2024.2.0
  $dumpfile ("uart_tx.vcd") 
$end

$timescale
  1ps
$end

$scope module tb_uart_tx $end
$var reg 1 ! clk $end
$var reg 1 " rst_n $end
$var reg 1 # send $end
$var reg 8 $ data_in [7:0] $end
$var wire 1 % tx $end
$var wire 1 & busy $end
$var integer 32 ' pass_count [31:0] $end
$var integer 32 ( fail_count [31:0] $end
$var reg 256 ) current_test [255:0] $end
$scope module dut $end
$var wire 1 * clk $end
$var wire 1 + rst_n $end
$var wire 8 , data_in [7:0] $end
$var wire 1 - send $end
$var reg 1 . tx $end
$var wire 1 & busy $end
$var reg 20 / baud_cnt [19:0] $end
$var reg 4 0 bit_cnt [3:0] $end
$var reg 10 1 shift [9:0] $end
$var reg 1 2 active $end
$upscope $end
$scope task check_bit $end
$var reg 1 3 exp [0:0] $end
$var reg 128 4 name [127:0] $end
$var integer 32 5 k [31:0] $end
$upscope $end
$upscope $end
$enddefinitions $end

#0
$dumpvars
0!
0"
0#
b0 $
1%
0&
b0 '
b0 (
bx )
0*
0+
b0 ,
0-
1.
b0 /
b0 0
b0 1
02
x3
bx 4
bx 5
$end

#5000
1!
1*

#10000
0!
0*

#15000
1!
1*

#20000
0!
1"
b1 '
b10000001000110011100100110000101101101011001010010000001010100011010010110110101101001011011100110011100100000011000010110111001100100001000000100001001110101011100110111100100100000010100110110100101100111011011100110000101101100011010010110111001100111 )
0*
1+

#25000
1!
1*

#30000
0!
1#
b10101010 $
0*
b10101010 ,
1-

#35000
1!
1&
1*
b1001 /
b1101010100 1
12

#40000
0!
0#
0*
0-

#45000
1!
1*
b1000 /

#50000
0!
0*

#55000
1!
1*
b111 /

#60000
0!
0*

#65000
1!
1*
b110 /

#70000
0!
0*

#75000
1!
1*
b101 /

#80000
0!
0*

#85000
1!
1*
b100 /

#90000
0!
0*

#95000
1!
1*
b11 /

#100000
0!
0*

#105000
1!
1*
b10 /

#110000
0!
0*

#115000
1!
1*
b1 /

#120000
0!
0*

#125000
1!
1*
b0 /

#130000
0!
0*

#135000
1!
0%
1*
0.
b1001 /
b1 0
b1110101010 1

#140000
0!
0*

#145000
1!
1*
b1000 /

#150000
0!
0*

#155000
1!
1*
b111 /

#160000
0!
0*

#165000
1!
1*
b110 /

#170000
0!
0*

#175000
1!
1*
b101 /

#180000
0!
0*

#185000
1!
1*
b100 /

#190000
0!
0*

#195000
1!
1*
b11 /

#200000
0!
0*

#205000
1!
1*
b10 /

#210000
0!
0*

#215000
1!
1*
b1 /

#220000
0!
0*

#225000
1!
1*
b0 /

#230000
0!
0*

#235000
1!
1*
b1001 /
b10 0
b1111010101 1

#240000
0!
0*

#245000
1!
1*
b1000 /

#250000
0!
0*

#255000
1!
1*
b111 /

#260000
0!
0*

#265000
1!
1*
b110 /

#270000
0!
0*

#275000
1!
1*
b101 /

#280000
0!
0*

#285000
1!
1*
b100 /

#290000
0!
0*

#295000
1!
1*
b11 /

#300000
0!
0*

#305000
1!
1*
b10 /

#310000
0!
0*

#315000
1!
1*
b1 /

#320000
0!
0*

#325000
1!
1*
b0 /

#330000
0!
0*

#335000
1!
1%
1*
1.
b1001 /
b11 0
b1111101010 1

#340000
0!
0*

#345000
1!
1*
b1000 /

#350000
0!
0*

#355000
1!
1*
b111 /

#360000
0!
0*

#365000
1!
1*
b110 /

#370000
0!
0*

#375000
1!
1*
b101 /

#380000
0!
0*

#385000
1!
1*
b100 /

#390000
0!
0*

#395000
1!
1*
b11 /

#400000
0!
0*

#405000
1!
1*
b10 /

#410000
0!
0*

#415000
1!
1*
b1 /

#420000
0!
0*

#425000
1!
1*
b0 /

#430000
0!
0*

#435000
1!
0%
1*
0.
b1001 /
b100 0
b1111110101 1

#440000
0!
0*

#445000
1!
1*
b1000 /

#450000
0!
0*

#455000
1!
1*
b111 /

#460000
0!
0*

#465000
1!
1*
b110 /

#470000
0!
0*

#475000
1!
1*
b101 /

#480000
0!
0*

#485000
1!
1*
b100 /

#490000
0!
0*

#495000
1!
1*
b11 /

#500000
0!
0*

#505000
1!
1*
b10 /

#510000
0!
0*

#515000
1!
1*
b1 /

#520000
0!
0*

#525000
1!
1*
b0 /

#530000
0!
0*

#535000
1!
1%
1*
1.
b1001 /
b101 0
b1111111010 1

#540000
0!
0*

#545000
1!
1*
b1000 /

#550000
0!
0*

#555000
1!
1*
b111 /

#560000
0!
0*

#565000
1!
1*
b110 /

#570000
0!
0*

#575000
1!
1*
b101 /

#580000
0!
0*

#585000
1!
1*
b100 /

#590000
0!
0*

#595000
1!
1*
b11 /

#600000
0!
0*

#605000
1!
1*
b10 /

#610000
0!
0*

#615000
1!
1*
b1 /

#620000
0!
0*

#625000
1!
1*
b0 /

#630000
0!
0*

#635000
1!
0%
1*
0.
b1001 /
b110 0
b1111111101 1

#640000
0!
0*

#645000
1!
1*
b1000 /

#650000
0!
0*

#655000
1!
1*
b111 /

#660000
0!
0*

#665000
1!
1*
b110 /

#670000
0!
0*

#675000
1!
1*
b101 /

#680000
0!
0*

#685000
1!
1*
b100 /

#690000
0!
0*

#695000
1!
1*
b11 /

#700000
0!
0*

#705000
1!
1*
b10 /

#710000
0!
0*

#715000
1!
1*
b1 /

#720000
0!
0*

#725000
1!
1*
b0 /

#730000
0!
0*

#735000
1!
1%
1*
1.
b1001 /
b111 0
b1111111110 1

#740000
0!
0*

#745000
1!
1*
b1000 /

#750000
0!
0*

#755000
1!
1*
b111 /

#760000
0!
0*

#765000
1!
1*
b110 /

#770000
0!
0*

#775000
1!
1*
b101 /

#780000
0!
0*

#785000
1!
1*
b100 /

#790000
0!
0*

#795000
1!
1*
b11 /

#800000
0!
0*

#805000
1!
1*
b10 /

#810000
0!
0*

#815000
1!
1*
b1 /

#820000
0!
0*

#825000
1!
1*
b0 /

#830000
0!
0*

#835000
1!
0%
1*
0.
b1001 /
b1000 0
b1111111111 1

#840000
0!
0*

#845000
1!
1*
b1000 /

#850000
0!
0*

#855000
1!
1*
b111 /

#860000
0!
0*

#865000
1!
1*
b110 /

#870000
0!
0*

#875000
1!
1*
b101 /

#880000
0!
0*

#885000
1!
1*
b100 /

#890000
0!
0*

#895000
1!
1*
b11 /

#900000
0!
0*

#905000
1!
1*
b10 /

#910000
0!
0*

#915000
1!
1*
b1 /

#920000
0!
0*

#925000
1!
1*
b0 /

#930000
0!
0*

#935000
1!
1%
1*
1.
b1001 /
b1001 0

#940000
0!
0*

#945000
1!
1*
b1000 /

#950000
0!
0*

#955000
1!
1*
b111 /

#960000
0!
0*

#965000
1!
1*
b110 /

#970000
0!
0*

#975000
1!
1*
b101 /

#980000
0!
0*

#985000
1!
1*
b100 /

#990000
0!
0*

#995000
1!
1*
b11 /

#1000000
0!
0*

#1005000
1!
1*
b10 /

#1010000
0!
0*

#1015000
1!
1*
b1 /

#1020000
0!
0*

#1025000
1!
1*
b0 /

#1030000
0!
0*

#1035000
1!
0&
1*
b1001 /
b0 0
02
03
b10100110111010001100001011100100111010000100000010000100110100101110100 4

#1040000
0!
0*

#1045000
1!
1*

#1050000
0!
0*

#1055000
1!
1*

#1060000
0!
0*

#1065000
1!
1*

#1070000
0!
0*

#1075000
1!
1*

#1080000
0!
0*

#1085000
1!
b1 (
1*

#1090000
0!
0*

#1095000
1!
1*

#1100000
0!
0*

#1105000
1!
1*

#1110000
0!
0*

#1115000
1!
1*

#1120000
0!
0*

#1125000
1!
1*

#1130000
0!
0*

#1135000
1!
1*
b100010000110000 4

#1140000
0!
0*

#1145000
1!
1*

#1150000
0!
0*

#1155000
1!
1*

#1160000
0!
0*

#1165000
1!
1*

#1170000
0!
0*

#1175000
1!
1*

#1180000
0!
0*

#1185000
1!
b10 (
1*

#1190000
0!
0*

#1195000
1!
1*

#1200000
0!
0*

#1205000
1!
1*

#1210000
0!
0*

#1215000
1!
1*

#1220000
0!
0*

#1225000
1!
1*

#1230000
0!
0*

#1235000
1!
1*
13
b100010000110001 4

#1240000
0!
0*

#1245000
1!
1*

#1250000
0!
0*

#1255000
1!
1*

#1260000
0!
0*

#1265000
1!
1*

#1270000
0!
0*

#1275000
1!
1*

#1280000
0!
0*

#1285000
1!
b10 '
1*

#1290000
0!
0*

#1295000
1!
1*

#1300000
0!
0*

#1305000
1!
1*

#1310000
0!
0*

#1315000
1!
1*

#1320000
0!
0*

#1325000
1!
1*

#1330000
0!
0*

#1335000
1!
1*
03
b100010000110010 4

#1340000
0!
0*

#1345000
1!
1*

#1350000
0!
0*

#1355000
1!
1*

#1360000
0!
0*

#1365000
1!
1*

#1370000
0!
0*

#1375000
1!
1*

#1380000
0!
0*

#1385000
1!
b11 (
1*

#1390000
0!
0*

#1395000
1!
1*

#1400000
0!
0*

#1405000
1!
1*

#1410000
0!
0*

#1415000
1!
1*

#1420000
0!
0*

#1425000
1!
1*

#1430000
0!
0*

#1435000
1!
1*
13
b100010000110011 4

#1440000
0!
0*

#1445000
1!
1*

#1450000
0!
0*

#1455000
1!
1*

#1460000
0!
0*

#1465000
1!
1*

#1470000
0!
0*

#1475000
1!
1*

#1480000
0!
0*

#1485000
1!
b11 '
1*

#1490000
0!
0*

#1495000
1!
1*

#1500000
0!
0*

#1505000
1!
1*

#1510000
0!
0*

#1515000
1!
1*

#1520000
0!
0*

#1525000
1!
1*

#1530000
0!
0*

#1535000
1!
1*
03
b100010000110100 4

#1540000
0!
0*

#1545000
1!
1*

#1550000
0!
0*

#1555000
1!
1*

#1560000
0!
0*

#1565000
1!
1*

#1570000
0!
0*

#1575000
1!
1*

#1580000
0!
0*

#1585000
1!
b100 (
1*

#1590000
0!
0*

#1595000
1!
1*

#1600000
0!
0*

#1605000
1!
1*

#1610000
0!
0*

#1615000
1!
1*

#1620000
0!
0*

#1625000
1!
1*

#1630000
0!
0*

#1635000
1!
1*
13
b100010000110101 4

#1640000
0!
0*

#1645000
1!
1*

#1650000
0!
0*

#1655000
1!
1*

#1660000
0!
0*

#1665000
1!
1*

#1670000
0!
0*

#1675000
1!
1*

#1680000
0!
0*

#1685000
1!
b100 '
1*

#1690000
0!
0*

#1695000
1!
1*

#1700000
0!
0*

#1705000
1!
1*

#1710000
0!
0*

#1715000
1!
1*

#1720000
0!
0*

#1725000
1!
1*

#1730000
0!
0*

#1735000
1!
1*
03
b100010000110110 4

#1740000
0!
0*

#1745000
1!
1*

#1750000
0!
0*

#1755000
1!
1*

#1760000
0!
0*

#1765000
1!
1*

#1770000
0!
0*

#1775000
1!
1*

#1780000
0!
0*

#1785000
1!
b101 (
1*

#1790000
0!
0*

#1795000
1!
1*

#1800000
0!
0*

#1805000
1!
1*

#1810000
0!
0*

#1815000
1!
1*

#1820000
0!
0*

#1825000
1!
1*

#1830000
0!
0*

#1835000
1!
1*
13
b100010000110111 4

#1840000
0!
0*

#1845000
1!
1*

#1850000
0!
0*

#1855000
1!
1*

#1860000
0!
0*

#1865000
1!
1*

#1870000
0!
0*

#1875000
1!
1*

#1880000
0!
0*

#1885000
1!
b101 '
1*

#1890000
0!
0*

#1895000
1!
1*

#1900000
0!
0*

#1905000
1!
1*

#1910000
0!
0*

#1915000
1!
1*

#1920000
0!
0*

#1925000
1!
1*

#1930000
0!
0*

#1935000
1!
1*
b101001101110100011011110111000000100000010000100110100101110100 4

#1940000
0!
0*

#1945000
1!
1*

#1950000
0!
0*

#1955000
1!
1*

#1960000
0!
0*

#1965000
1!
1*

#1970000
0!
0*

#1975000
1!
1*

#1980000
0!
0*

#1985000
1!
b110 '
1*

#1990000
0!
0*

#1995000
1!
1*

#2000000
0!
0*

#2005000
1!
1*

#2010000
0!
0*

#2015000
1!
1*

#2020000
0!
0*

#2025000
1!
1*

#2030000
0!
0*

#2035000
1!
b1010010011001010111001101100101011101000010000001100100011101010111001001101001011011100110011100100000011101000111001001100001011011100111001101101101011010010111001101110011011010010110111101101110 )
1*

#2040000
0!
1#
b1010101 $
0*
b1010101 ,
1-

#2045000
1!
1&
1*
b1010101010 1
12

#2050000
0!
0#
0*
0-

#2055000
1!
1*
b1000 /

#2060000
0!
0*

#2065000
1!
1*
b111 /

#2070000
0!
0*

#2075000
1!
1*
b110 /

#2080000
0!
0*

#2085000
1!
1*
b101 /

#2090000
0!
0*

#2095000
1!
1*
b100 /

#2100000
0!
0*

#2105000
1!
1*
b11 /

#2110000
0!
0*

#2115000
1!
1*
b10 /

#2120000
0!
0*

#2125000
1!
1*
b1 /

#2130000
0!
0*

#2135000
1!
1*
b0 /

#2140000
0!
0*

#2145000
1!
0%
1*
0.
b1001 /
b1 0
b1101010101 1

#2150000
0!
0*

#2155000
1!
1*
b1000 /

#2160000
0!
0*

#2165000
1!
1*
b111 /

#2170000
0!
0*

#2175000
1!
1*
b110 /

#2180000
0!
0*

#2185000
1!
1*
b101 /

#2190000
0!
0*

#2195000
1!
1*
b100 /

#2200000
0!
0*

#2205000
1!
1*
b11 /

#2210000
0!
0*

#2215000
1!
1*
b10 /

#2220000
0!
0*

#2225000
1!
1*
b1 /

#2230000
0!
0*

#2235000
1!
1*
b0 /

#2240000
0!
0*

#2245000
1!
1%
1*
1.
b1001 /
b10 0
b1110101010 1

#2250000
0!
0*

#2255000
1!
1*
b1000 /

#2260000
0!
0*

#2265000
1!
1*
b111 /

#2270000
0!
0*

#2275000
1!
1*
b110 /

#2280000
0!
0*

#2285000
1!
1*
b101 /

#2290000
0!
0*

#2295000
1!
1*
b100 /

#2300000
0!
0*

#2305000
1!
1*
b11 /

#2310000
0!
0*

#2315000
1!
1*
b10 /

#2320000
0!
0*

#2325000
1!
1*
b1 /

#2330000
0!
0*

#2335000
1!
1*
b0 /

#2340000
0!
0*

#2345000
1!
0"
0&
1*
0+
b0 0
b0 1
02

#2350000
0!
1"
1#
b11111111 $
b111 '
b10010010110011101101110011011110111001001100101011001000010000001110011011001010110111001100100001000000110010001110101011100100110100101101110011001110010000001100010011101010111001101111001 )
0*
1+
b11111111 ,
1-

#2355000
1!
1&
1*
b1001 /
b1111111110 1
12

#2360000
0!
1#
b0 $
0*
b0 ,

#2365000
1!
1*
b1000 /

#2370000
0!
0#
0*
0-

#2375000
1!
1*
b111 /

#2380000
0!
0*

#2385000
1!
1*
b110 /

#2390000
0!
0*

#2395000
1!
1*
b101 /

#2400000
0!
0*

#2405000
1!
1*
b100 /

#2410000
0!
0*

#2415000
1!
1*
b11 /

#2420000
0!
0*

#2425000
1!
1*
b10 /

#2430000
0!
0*

#2435000
1!
1*
b1 /

#2440000
0!
0*

#2445000
1!
1*
b0 /

#2450000
0!
0*

#2455000
1!
0%
1*
0.
b1001 /
b1 0
b1111111111 1

#2460000
0!
0*

#2465000
1!
b110 (
1*
b1000 /

#2470000
0!
0*

#2475000
1!
b111 (
1*
b111 /

#2480000
0!
0*

#2485000
1!
b1000 (
1*
b110 /

#2490000
0!
0*

#2495000
1!
b1001 (
1*
b101 /

#2500000
0!
0*

#2505000
1!
b1010 (
1*
b100 /

#2510000
0!
0*

#2515000
1!
b1011 (
1*
b11 /

#2520000
0!
0*

#2525000
1!
b1100 (
1*
b10 /

#2530000
0!
0*

#2535000
1!
b1101 (
1*
b1 /

#2540000
0!
0*

#2545000
1!
b1110 (
1*
b0 /

#2550000
0!
0*

#2555000
1!
1%
b1111 (
1*
1.
b1001 /
b10 0

#2560000
0!
0*

#2565000
1!
1*
b1000 /

#2570000
0!
0*

#2575000
1!
1*
b111 /

#2580000
0!
0*

#2585000
1!
1*
b110 /

#2590000
0!
0*

#2595000
1!
1*
b101 /

#2600000
0!
0*

#2605000
1!
1*
b100 /

#2610000
0!
0*

#2615000
1!
1*
b11 /

#2620000
0!
0*

#2625000
1!
1*
b10 /

#2630000
0!
0*

#2635000
1!
1*
b1 /

#2640000
0!
0*

#2645000
1!
1*
b0 /

#2650000
0!
0*

#2655000
1!
1*
b1001 /
b11 0

#2660000
0!
0*

#2665000
1!
1*
b1000 /

#2670000
0!
0*

#2675000
1!
1*
b111 /

#2680000
0!
0*

#2685000
1!
1*
b110 /

#2690000
0!
0*

#2695000
1!
1*
b101 /

#2700000
0!
0*

#2705000
1!
1*
b100 /

#2710000
0!
0*

#2715000
1!
1*
b11 /

#2720000
0!
0*

#2725000
1!
1*
b10 /

#2730000
0!
0*

#2735000
1!
1*
b1 /

#2740000
0!
0*

#2745000
1!
1*
b0 /

#2750000
0!
0*

#2755000
1!
1*
b1001 /
b100 0

#2760000
0!
0*

#2765000
1!
1*
b1000 /

#2770000
0!
0*

#2775000
1!
1*
b111 /

#2780000
0!
0*

#2785000
1!
1*
b110 /

#2790000
0!
0*

#2795000
1!
1*
b101 /

#2800000
0!
0*

#2805000
1!
1*
b100 /

#2810000
0!
0*

#2815000
1!
1*
b11 /

#2820000
0!
0*

#2825000
1!
1*
b10 /

#2830000
0!
0*

#2835000
1!
1*
b1 /

#2840000
0!
0*

#2845000
1!
1*
b0 /

#2850000
0!
0*

#2855000
1!
1*
b1001 /
b101 0

#2860000
0!
0*

#2865000
1!
1*
b1000 /

#2870000
0!
0*

#2875000
1!
1*
b111 /

#2880000
0!
0*

#2885000
1!
1*
b110 /

#2890000
0!
0*

#2895000
1!
1*
b101 /

#2900000
0!
0*

#2905000
1!
1*
b100 /

#2910000
0!
0*

#2915000
1!
1*
b11 /

#2920000
0!
0*

#2925000
1!
1*
b10 /

#2930000
0!
0*

#2935000
1!
1*
b1 /

#2940000
0!
0*

#2945000
1!
1*
b0 /

#2950000
0!
0*

#2955000
1!
1*
b1001 /
b110 0

#2960000
0!
0*

#2965000
1!
1*
b1000 /

#2970000
0!
0*

#2975000
1!
1*
b111 /

#2980000
0!
0*

#2985000
1!
1*
b110 /

#2990000
0!
0*

#2995000
1!
1*
b101 /

#3000000
0!
0*

#3005000
1!
1*
b100 /

#3010000
0!
0*

#3015000
1!
1*
b11 /

#3020000
0!
0*

#3025000
1!
1*
b10 /

#3030000
0!
0*

#3035000
1!
1*
b1 /

#3040000
0!
0*

#3045000
1!
1*
b0 /

#3050000
0!
0*

#3055000
1!
1*
b1001 /
b111 0

#3060000
0!
0*

#3065000
1!
1*
b1000 /

#3070000
0!
0*

#3075000
1!
1*
b111 /

#3080000
0!
0*

#3085000
1!
1*
b110 /

#3090000
0!
0*

#3095000
1!
1*
b101 /

#3100000
0!
0*

#3105000
1!
1*
b100 /

#3110000
0!
0*

#3115000
1!
1*
b11 /

#3120000
0!
0*

#3125000
1!
1*
b10 /

#3130000
0!
0*

#3135000
1!
1*
b1 /

#3140000
0!
0*

#3145000
1!
1*
b0 /

#3150000
0!
0*

#3155000
1!
1*
b1001 /
b1000 0

#3160000
0!
0*

#3165000
1!
1*
b1000 /

#3170000
0!
0*

#3175000
1!
1*
b111 /

#3180000
0!
0*

#3185000
1!
1*
b110 /

#3190000
0!
0*

#3195000
1!
1*
b101 /

#3200000
0!
0*

#3205000
1!
1*
b100 /

#3210000
0!
0*

#3215000
1!
1*
b11 /

#3220000
0!
0*

#3225000
1!
1*
b10 /

#3230000
0!
0*

#3235000
1!
1*
b1 /

#3240000
0!
0*

#3245000
1!
1*
b0 /

#3250000
0!
0*

#3255000
1!
1*
b1001 /
b1001 0

#3260000
0!
0*

#3265000
1!
1*
b1000 /

#3270000
0!
0*

#3275000
1!
1*
b111 /

#3280000
0!
0*

#3285000
1!
1*
b110 /

#3290000
0!
0*

#3295000
1!
1*
b101 /

#3300000
0!
0*

#3305000
1!
1*
b100 /

#3310000
0!
0*

#3315000
1!
1*
b11 /

#3320000
0!
0*

#3325000
1!
1*
b10 /

#3330000
0!
0*

#3335000
1!
1*
b1 /

#3340000
0!
0*

#3345000
1!
1*
b0 /

#3350000
0!
0*

#3355000
1!
0&
1*
b1001 /
b0 0
02

#3360000
0!
0*

#3365000
1!
1*

#3370000
0!
0*

#3375000
1!
1*

#3380000
0!
0*

#3385000
1!
1*

#3390000
0!
0*

#3395000
1!
1*

#3400000
0!
0*

#3405000
1!
1*

#3410000
0!
0*

#3415000
1!
1*

#3420000
0!
0*

#3425000
1!
1*

#3430000
0!
0*

#3435000
1!
1*

#3440000
0!
0*

#3445000
1!
1*

#3450000
0!
0*

#3455000
1!
1*

#3460000
0!
0*

#3465000
1!
1#
b11111111 $
1&
b1000 '
b100001001100001011000110110101100101101011101000110111100101101011000100110000101100011011010110010000001110100011100100110000101101110011100110110110101101001011100110111001101101001011011110110111001110011 )
1*
b11111111 ,
1-
b1111111110 1
12

#3470000
0!
0#
0*
0-

#3475000
1!
1*
b1000 /

#3480000
0!
0*

#3485000
1!
1*
b111 /

#3490000
0!
0*

#3495000
1!
1*
b110 /

#3500000
0!
0*

#3505000
1!
1*
b101 /

#3510000
0!
0*

#3515000
1!
1*
b100 /

#3520000
0!
0*

#3525000
1!
1*
b11 /

#3530000
0!
0*

#3535000
1!
1*
b10 /

#3540000
0!
0*

#3545000
1!
1*
b1 /

#3550000
0!
0*

#3555000
1!
1*
b0 /

#3560000
0!
0*

#3565000
1!
0%
1*
0.
b1001 /
b1 0
b1111111111 1

#3570000
0!
0*

#3575000
1!
1*
b1000 /

#3580000
0!
0*

#3585000
1!
1*
b111 /

#3590000
0!
0*

#3595000
1!
1*
b110 /

#3600000
0!
0*

#3605000
1!
1*
b101 /

#3610000
0!
0*

#3615000
1!
1*
b100 /

#3620000
0!
0*

#3625000
1!
1*
b11 /

#3630000
0!
0*

#3635000
1!
1*
b10 /

#3640000
0!
0*

#3645000
1!
1*
b1 /

#3650000
0!
0*

#3655000
1!
1*
b0 /

#3660000
0!
0*

#3665000
1!
1%
1*
1.
b1001 /
b10 0

#3670000
0!
0*

#3675000
1!
1*
b1000 /

#3680000
0!
0*

#3685000
1!
1*
b111 /

#3690000
0!
0*

#3695000
1!
1*
b110 /

#3700000
0!
0*

#3705000
1!
1*
b101 /

#3710000
0!
0*

#3715000
1!
1*
b100 /

#3720000
0!
0*

#3725000
1!
1*
b11 /

#3730000
0!
0*

#3735000
1!
1*
b10 /

#3740000
0!
0*

#3745000
1!
1*
b1 /

#3750000
0!
0*

#3755000
1!
1*
b0 /

#3760000
0!
0*

#3765000
1!
1*
b1001 /
b11 0

#3770000
0!
0*

#3775000
1!
1*
b1000 /

#3780000
0!
0*

#3785000
1!
1*
b111 /

#3790000
0!
0*

#3795000
1!
1*
b110 /

#3800000
0!
0*

#3805000
1!
1*
b101 /

#3810000
0!
0*

#3815000
1!
1*
b100 /

#3820000
0!
0*

#3825000
1!
1*
b11 /

#3830000
0!
0*

#3835000
1!
1*
b10 /

#3840000
0!
0*

#3845000
1!
1*
b1 /

#3850000
0!
0*

#3855000
1!
1*
b0 /

#3860000
0!
0*

#3865000
1!
1*
b1001 /
b100 0

#3870000
0!
0*

#3875000
1!
1*
b1000 /

#3880000
0!
0*

#3885000
1!
1*
b111 /

#3890000
0!
0*

#3895000
1!
1*
b110 /

#3900000
0!
0*

#3905000
1!
1*
b101 /

#3910000
0!
0*

#3915000
1!
1*
b100 /

#3920000
0!
0*

#3925000
1!
1*
b11 /

#3930000
0!
0*

#3935000
1!
1*
b10 /

#3940000
0!
0*

#3945000
1!
1*
b1 /

#3950000
0!
0*

#3955000
1!
1*
b0 /

#3960000
0!
0*

#3965000
1!
1*
b1001 /
b101 0

#3970000
0!
0*

#3975000
1!
1*
b1000 /

#3980000
0!
0*

#3985000
1!
1*
b111 /

#3990000
0!
0*

#3995000
1!
1*
b110 /

#4000000
0!
0*

#4005000
1!
1*
b101 /

#4010000
0!
0*

#4015000
1!
1*
b100 /

#4020000
0!
0*

#4025000
1!
1*
b11 /

#4030000
0!
0*

#4035000
1!
1*
b10 /

#4040000
0!
0*

#4045000
1!
1*
b1 /

#4050000
0!
0*

#4055000
1!
1*
b0 /

#4060000
0!
0*

#4065000
1!
1*
b1001 /
b110 0

#4070000
0!
0*

#4075000
1!
1*
b1000 /

#4080000
0!
0*

#4085000
1!
1*
b111 /

#4090000
0!
0*

#4095000
1!
1*
b110 /

#4100000
0!
0*

#4105000
1!
1*
b101 /

#4110000
0!
0*

#4115000
1!
1*
b100 /

#4120000
0!
0*

#4125000
1!
1*
b11 /

#4130000
0!
0*

#4135000
1!
1*
b10 /

#4140000
0!
0*

#4145000
1!
1*
b1 /

#4150000
0!
0*

#4155000
1!
1*
b0 /

#4160000
0!
0*

#4165000
1!
1*
b1001 /
b111 0

#4170000
0!
0*

#4175000
1!
1*
b1000 /

#4180000
0!
0*

#4185000
1!
1*
b111 /

#4190000
0!
0*

#4195000
1!
1*
b110 /

#4200000
0!
0*

#4205000
1!
1*
b101 /

#4210000
0!
0*

#4215000
1!
1*
b100 /

#4220000
0!
0*

#4225000
1!
1*
b11 /

#4230000
0!
0*

#4235000
1!
1*
b10 /

#4240000
0!
0*

#4245000
1!
1*
b1 /

#4250000
0!
0*

#4255000
1!
1*
b0 /

#4260000
0!
0*

#4265000
1!
1*
b1001 /
b1000 0

#4270000
0!
0*

#4275000
1!
1*
b1000 /

#4280000
0!
0*

#4285000
1!
1*
b111 /

#4290000
0!
0*

#4295000
1!
1*
b110 /

#4300000
0!
0*

#4305000
1!
1*
b101 /

#4310000
0!
0*

#4315000
1!
1*
b100 /

#4320000
0!
0*

#4325000
1!
1*
b11 /

#4330000
0!
0*

#4335000
1!
1*
b10 /

#4340000
0!
0*

#4345000
1!
1*
b1 /

#4350000
0!
0*

#4355000
1!
1*
b0 /

#4360000
0!
0*

#4365000
1!
1*
b1001 /
b1001 0

#4370000
0!
0*

#4375000
1!
1*
b1000 /

#4380000
0!
0*

#4385000
1!
1*
b111 /

#4390000
0!
0*

#4395000
1!
1*
b110 /

#4400000
0!
0*

#4405000
1!
1*
b101 /

#4410000
0!
0*

#4415000
1!
1*
b100 /

#4420000
0!
0*

#4425000
1!
1*
b11 /

#4430000
0!
0*

#4435000
1!
1*
b10 /

#4440000
0!
0*

#4445000
1!
1*
b1 /

#4450000
0!
0*

#4455000
1!
1*
b0 /

#4460000
0!
0*

#4465000
1!
1#
b0 $
0&
1*
b0 ,
1-
b1001 /
b0 0
02

#4470000
0!
0#
b1001 '
0*
