sim/test_uaert_rx/test_uaert_rx.sim/sim_1/behav/xsim/uart_rx.vcd
$date
   Thu Jul  2 14:52:17 2026
$end

$version
  2024.2.0
  $dumpfile ("uart_rx.vcd") 
$end

$timescale
  1ps
$end

$scope module tb_uart_rx $end
$var reg 1 ! clk $end
$var reg 1 " rst_n $end
$var reg 1 # rx $end
$var wire 8 $ data_out [7:0] $end
$var wire 1 % data_valid $end
$var integer 32 & pass_count [31:0] $end
$var integer 32 ' fail_count [31:0] $end
$var integer 32 ( wait_cnt [31:0] $end
$var integer 32 ) i [31:0] $end
$var reg 256 * current_test [255:0] $end
$scope module dut $end
$var wire 1 + clk $end
$var wire 1 , rst_n $end
$var wire 1 - rx $end
$var reg 8 . data_out [7:0] $end
$var reg 1 / data_valid $end
$var reg 20 0 baud_cnt [19:0] $end
$var reg 4 1 bit_cnt [3:0] $end
$var reg 8 2 shift [7:0] $end
$var reg 1 3 active $end
$var reg 1 4 rx_s0 $end
$var reg 1 5 rx_s1 $end
$upscope $end
$scope task send_uart_frame $end
$var reg 8 6 tx_data [7:0] $end
$var reg 1 7 valid_stop_bit $end
$var integer 32 8 b [31:0] $end
$upscope $end
$scope task check_received_data $end
$var reg 8 9 exp_data [7:0] $end
$upscope $end
$scope task check_framing_error $end
$upscope $end
$upscope $end
$enddefinitions $end

#0
$dumpvars
0!
0"
1#
b0 $
0%
b0 &
b0 '
bx (
bx )
bx *
0+
0,
1-
b0 .
0/
b0 0
b0 1
b0 2
03
14
15
bx 6
x7
bx 8
bx 9
$end

#5000
1!
1+

#10000
0!
0+

#15000
1!
1+

#20000
0!
1"
0+
1,

#25000
1!
1+

#30000
0!
0+

#35000
1!
1+

#40000
0!
0+

#45000
1!
1+

#50000
0!
0+

#55000
1!
1+

#60000
0!
0+

#65000
1!
1+

#70000
0!
0#
b1 (
b100111001101111011100100110110101100001011011000010000001010010011001010110001101100101011100000111010001101001011011110110111000111010001000000011100000100111011010000100000100110101 *
0+
0-
b10100101 6
17
b10100101 9

#75000
1!
1+
04

#80000
0!
b10 (
0+

#85000
1!
1+
05

#90000
0!
b11 (
0+

#95000
1!
1+
b101 0
13

#100000
0!
b100 (
0+

#105000
1!
1+
b100 0

#110000
0!
b101 (
0+

#115000
1!
1+
b11 0

#120000
0!
b110 (
0+

#125000
1!
1+
b10 0

#130000
0!
b111 (
0+

#135000
1!
1+
b1 0

#140000
0!
b1000 (
0+

#145000
1!
1+
b0 0

#150000
0!
b1001 (
0+

#155000
1!
1+
b1001 0
b1 1

#160000
0!
b1010 (
0+

#165000
1!
1+
b1000 0

#170000
0!
1#
b1011 (
0+
1-
b0 8

#175000
1!
1+
b111 0
14

#180000
0!
b1100 (
0+

#185000
1!
1+
b110 0
15

#190000
0!
b1101 (
0+

#195000
1!
1+
b101 0

#200000
0!
b1110 (
0+

#205000
1!
1+
b100 0

#210000
0!
b1111 (
0+

#215000
1!
1+
b11 0

#220000
0!
b10000 (
0+

#225000
1!
1+
b10 0

#230000
0!
b10001 (
0+

#235000
1!
1+
b1 0

#240000
0!
b10010 (
0+

#245000
1!
1+
b0 0

#250000
0!
b10011 (
0+

#255000
1!
1+
b1001 0
b10 1
b10000000 2

#260000
0!
b10100 (
0+

#265000
1!
1+
b1000 0

#270000
0!
0#
b10101 (
0+
0-
b1 8

#275000
1!
1+
b111 0
04

#280000
0!
b10110 (
0+

#285000
1!
1+
b110 0
05

#290000
0!
b10111 (
0+

#295000
1!
1+
b101 0

#300000
0!
b11000 (
0+

#305000
1!
1+
b100 0

#310000
0!
b11001 (
0+

#315000
1!
1+
b11 0

#320000
0!
b11010 (
0+

#325000
1!
1+
b10 0

#330000
0!
b11011 (
0+

#335000
1!
1+
b1 0

#340000
0!
b11100 (
0+

#345000
1!
1+
b0 0

#350000
0!
b11101 (
0+

#355000
1!
1+
b1001 0
b11 1
b1000000 2

#360000
0!
b11110 (
0+

#365000
1!
1+
b1000 0

#370000
0!
1#
b11111 (
0+
1-
b10 8

#375000
1!
1+
b111 0
14

#380000
0!
b100000 (
0+

#385000
1!
1+
b110 0
15

#390000
0!
b100001 (
0+

#395000
1!
1+
b101 0

#400000
0!
b100010 (
0+

#405000
1!
1+
b100 0

#410000
0!
b100011 (
0+

#415000
1!
1+
b11 0

#420000
0!
b100100 (
0+

#425000
1!
1+
b10 0

#430000
0!
b100101 (
0+

#435000
1!
1+
b1 0

#440000
0!
b100110 (
0+

#445000
1!
1+
b0 0

#450000
0!
b100111 (
0+

#455000
1!
1+
b1001 0
b100 1
b10100000 2

#460000
0!
b101000 (
0+

#465000
1!
1+
b1000 0

#470000
0!
0#
b101001 (
0+
0-
b11 8

#475000
1!
1+
b111 0
04

#480000
0!
b101010 (
0+

#485000
1!
1+
b110 0
05

#490000
0!
b101011 (
0+

#495000
1!
1+
b101 0

#500000
0!
b101100 (
0+

#505000
1!
1+
b100 0

#510000
0!
b101101 (
0+

#515000
1!
1+
b11 0

#520000
0!
b101110 (
0+

#525000
1!
1+
b10 0

#530000
0!
b101111 (
0+

#535000
1!
1+
b1 0

#540000
0!
b110000 (
0+

#545000
1!
1+
b0 0

#550000
0!
b110001 (
0+

#555000
1!
1+
b1001 0
b101 1
b1010000 2

#560000
0!
b110010 (
0+

#565000
1!
1+
b1000 0

#570000
0!
b110011 (
0+
b100 8

#575000
1!
1+
b111 0

#580000
0!
b110100 (
0+

#585000
1!
1+
b110 0

#590000
0!
b110101 (
0+

#595000
1!
1+
b101 0

#600000
0!
b110110 (
0+

#605000
1!
1+
b100 0

#610000
0!
b110111 (
0+

#615000
1!
1+
b11 0

#620000
0!
b111000 (
0+

#625000
1!
1+
b10 0

#630000
0!
b111001 (
0+

#635000
1!
1+
b1 0

#640000
0!
b111010 (
0+

#645000
1!
1+
b0 0

#650000
0!
b111011 (
0+

#655000
1!
1+
b1001 0
b110 1
b101000 2

#660000
0!
b111100 (
0+

#665000
1!
1+
b1000 0

#670000
0!
1#
b111101 (
0+
1-
b101 8

#675000
1!
1+
b111 0
14

#680000
0!
b111110 (
0+

#685000
1!
1+
b110 0
15

#690000
0!
b111111 (
0+

#695000
1!
1+
b101 0

#700000
0!
b1000000 (
0+

#705000
1!
1+
b100 0

#710000
0!
b1000001 (
0+

#715000
1!
1+
b11 0

#720000
0!
b1000010 (
0+

#725000
1!
1+
b10 0

#730000
0!
b1000011 (
0+

#735000
1!
1+
b1 0

#740000
0!
b1000100 (
0+

#745000
1!
1+
b0 0

#750000
0!
b1000101 (
0+

#755000
1!
1+
b1001 0
b111 1
b10010100 2

#760000
0!
b1000110 (
0+

#765000
1!
1+
b1000 0

#770000
0!
0#
b1000111 (
0+
0-
b110 8

#775000
1!
1+
b111 0
04

#780000
0!
b1001000 (
0+

#785000
1!
1+
b110 0
05

#790000
0!
b1001001 (
0+

#795000
1!
1+
b101 0

#800000
0!
b1001010 (
0+

#805000
1!
1+
b100 0

#810000
0!
b1001011 (
0+

#815000
1!
1+
b11 0

#820000
0!
b1001100 (
0+

#825000
1!
1+
b10 0

#830000
0!
b1001101 (
0+

#835000
1!
1+
b1 0

#840000
0!
b1001110 (
0+

#845000
1!
1+
b0 0

#850000
0!
b1001111 (
0+

#855000
1!
1+
b1001 0
b1000 1
b1001010 2

#860000
0!
b1010000 (
0+

#865000
1!
1+
b1000 0

#870000
0!
1#
b1010001 (
0+
1-
b111 8

#875000
1!
1+
b111 0
14

#880000
0!
b1010010 (
0+

#885000
1!
1+
b110 0
15

#890000
0!
b1010011 (
0+

#895000
1!
1+
b101 0

#900000
0!
b1010100 (
0+

#905000
1!
1+
b100 0

#910000
0!
b1010101 (
0+

#915000
1!
1+
b11 0

#920000
0!
b1010110 (
0+

#925000
1!
1+
b10 0

#930000
0!
b1010111 (
0+

#935000
1!
1+
b1 0

#940000
0!
b1011000 (
0+

#945000
1!
1+
b0 0

#950000
0!
b1011001 (
0+

#955000
1!
b1001010 $
1%
1+
b1001010 .
1/
b1001 0
b0 1
03

#960000
0!
b1 '
b1011010 (
0+

#965000
1!
0%
1+
0/

#970000
0!
0+
b1000 8

#975000
1!
1+

#980000
0!
0+

#985000
1!
1+

#990000
0!
0+

#995000
1!
1+

#1000000
0!
0+

#1005000
1!
1+

#1010000
0!
0+

#1015000
1!
1+

#1020000
0!
0+

#1025000
1!
1+

#1030000
0!
0+

#1035000
1!
1+

#1040000
0!
0+

#1045000
1!
1+

#1050000
0!
0+

#1055000
1!
1+

#1060000
0!
0+

#1065000
1!
1+

#1070000
0!
0+

#1075000
1!
1+

#1080000
0!
0+

#1085000
1!
1+

#1090000
0!
0+

#1095000
1!
1+

#1100000
0!
0+

#1105000
1!
1+

#1110000
0!
0+

#1115000
1!
1+

#1120000
0!
0#
b1 (
b100111001101111011100100110110101100001011011000010000001010010011001010110001101100101011100000111010001101001011011110110111000111010001000000011100000100111011010000011001101000011 *
0+
0-
b111100 6
b111100 9

#1125000
1!
1+
04

#1130000
0!
b10 (
0+

#1135000
1!
1+
05

#1140000
0!
b11 (
0+

#1145000
1!
1+
b101 0
13

#1150000
0!
b100 (
0+

#1155000
1!
1+
b100 0

#1160000
0!
b101 (
0+

#1165000
1!
1+
b11 0

#1170000
0!
b110 (
0+

#1175000
1!
1+
b10 0

#1180000
0!
b111 (
0+

#1185000
1!
1+
b1 0

#1190000
0!
b1000 (
0+

#1195000
1!
1+
b0 0

#1200000
0!
b1001 (
0+

#1205000
1!
1+
b1001 0
b1 1
b100101 2

#1210000
0!
b1010 (
0+

#1215000
1!
1+
b1000 0

#1220000
0!
b1011 (
0+
b0 8

#1225000
1!
1+
b111 0

#1230000
0!
b1100 (
0+

#1235000
1!
1+
b110 0

#1240000
0!
b1101 (
0+

#1245000
1!
1+
b101 0

#1250000
0!
b1110 (
0+

#1255000
1!
1+
b100 0

#1260000
0!
b1111 (
0+

#1265000
1!
1+
b11 0

#1270000
0!
b10000 (
0+

#1275000
1!
1+
b10 0

#1280000
0!
b10001 (
0+

#1285000
1!
1+
b1 0

#1290000
0!
b10010 (
0+

#1295000
1!
1+
b0 0

#1300000
0!
b10011 (
0+

#1305000
1!
1+
b1001 0
b10 1
b10010 2

#1310000
0!
b10100 (
0+

#1315000
1!
1+
b1000 0

#1320000
0!
b10101 (
0+
b1 8

#1325000
1!
1+
b111 0

#1330000
0!
b10110 (
0+

#1335000
1!
1+
b110 0

#1340000
0!
b10111 (
0+

#1345000
1!
1+
b101 0

#1350000
0!
b11000 (
0+

#1355000
1!
1+
b100 0

#1360000
0!
b11001 (
0+

#1365000
1!
1+
b11 0

#1370000
0!
b11010 (
0+

#1375000
1!
1+
b10 0

#1380000
0!
b11011 (
0+

#1385000
1!
1+
b1 0

#1390000
0!
b11100 (
0+

#1395000
1!
1+
b0 0

#1400000
0!
b11101 (
0+

#1405000
1!
1+
b1001 0
b11 1
b1001 2

#1410000
0!
b11110 (
0+

#1415000
1!
1+
b1000 0

#1420000
0!
1#
b11111 (
0+
1-
b10 8

#1425000
1!
1+
b111 0
14

#1430000
0!
b100000 (
0+

#1435000
1!
1+
b110 0
15

#1440000
0!
b100001 (
0+

#1445000
1!
1+
b101 0

#1450000
0!
b100010 (
0+

#1455000
1!
1+
b100 0

#1460000
0!
b100011 (
0+

#1465000
1!
1+
b11 0

#1470000
0!
b100100 (
0+

#1475000
1!
1+
b10 0

#1480000
0!
b100101 (
0+

#1485000
1!
1+
b1 0

#1490000
0!
b100110 (
0+

#1495000
1!
1+
b0 0

#1500000
0!
b100111 (
0+

#1505000
1!
1+
b1001 0
b100 1
b10000100 2

#1510000
0!
b101000 (
0+

#1515000
1!
1+
b1000 0

#1520000
0!
b101001 (
0+
b11 8

#1525000
1!
1+
b111 0

#1530000
0!
b101010 (
0+

#1535000
1!
1+
b110 0

#1540000
0!
b101011 (
0+

#1545000
1!
1+
b101 0

#1550000
0!
b101100 (
0+

#1555000
1!
1+
b100 0

#1560000
0!
b101101 (
0+

#1565000
1!
1+
b11 0

#1570000
0!
b101110 (
0+

#1575000
1!
1+
b10 0

#1580000
0!
b101111 (
0+

#1585000
1!
1+
b1 0

#1590000
0!
b110000 (
0+

#1595000
1!
1+
b0 0

#1600000
0!
b110001 (
0+

#1605000
1!
1+
b1001 0
b101 1
b11000010 2

#1610000
0!
b110010 (
0+

#1615000
1!
1+
b1000 0

#1620000
0!
b110011 (
0+
b100 8

#1625000
1!
1+
b111 0

#1630000
0!
b110100 (
0+

#1635000
1!
1+
b110 0

#1640000
0!
b110101 (
0+

#1645000
1!
1+
b101 0

#1650000
0!
b110110 (
0+

#1655000
1!
1+
b100 0

#1660000
0!
b110111 (
0+

#1665000
1!
1+
b11 0

#1670000
0!
b111000 (
0+

#1675000
1!
1+
b10 0

#1680000
0!
b111001 (
0+

#1685000
1!
1+
b1 0

#1690000
0!
b111010 (
0+

#1695000
1!
1+
b0 0

#1700000
0!
b111011 (
0+

#1705000
1!
1+
b1001 0
b110 1
b11100001 2

#1710000
0!
b111100 (
0+

#1715000
1!
1+
b1000 0

#1720000
0!
b111101 (
0+
b101 8

#1725000
1!
1+
b111 0

#1730000
0!
b111110 (
0+

#1735000
1!
1+
b110 0

#1740000
0!
b111111 (
0+

#1745000
1!
1+
b101 0

#1750000
0!
b1000000 (
0+

#1755000
1!
1+
b100 0

#1760000
0!
b1000001 (
0+

#1765000
1!
1+
b11 0

#1770000
0!
b1000010 (
0+

#1775000
1!
1+
b10 0

#1780000
0!
b1000011 (
0+

#1785000
1!
1+
b1 0

#1790000
0!
b1000100 (
0+

#1795000
1!
1+
b0 0

#1800000
0!
b1000101 (
0+

#1805000
1!
1+
b1001 0
b111 1
b11110000 2

#1810000
0!
b1000110 (
0+

#1815000
1!
1+
b1000 0

#1820000
0!
0#
b1000111 (
0+
0-
b110 8

#1825000
1!
1+
b111 0
04

#1830000
0!
b1001000 (
0+

#1835000
1!
1+
b110 0
05

#1840000
0!
b1001001 (
0+

#1845000
1!
1+
b101 0

#1850000
0!
b1001010 (
0+

#1855000
1!
1+
b100 0

#1860000
0!
b1001011 (
0+

#1865000
1!
1+
b11 0

#1870000
0!
b1001100 (
0+

#1875000
1!
1+
b10 0

#1880000
0!
b1001101 (
0+

#1885000
1!
1+
b1 0

#1890000
0!
b1001110 (
0+

#1895000
1!
1+
b0 0

#1900000
0!
b1001111 (
0+

#1905000
1!
1+
b1001 0
b1000 1
b1111000 2

#1910000
0!
b1010000 (
0+

#1915000
1!
1+
b1000 0

#1920000
0!
b1010001 (
0+
b111 8

#1925000
1!
1+
b111 0

#1930000
0!
b1010010 (
0+

#1935000
1!
1+
b110 0

#1940000
0!
b1010011 (
0+

#1945000
1!
1+
b101 0

#1950000
0!
b1010100 (
0+

#1955000
1!
1+
b100 0

#1960000
0!
b1010101 (
0+

#1965000
1!
1+
b11 0

#1970000
0!
b1010110 (
0+

#1975000
1!
1+
b10 0

#1980000
0!
b1010111 (
0+

#1985000
1!
1+
b1 0

#1990000
0!
b1011000 (
0+

#1995000
1!
1+
b0 0

#2000000
0!
b1011001 (
0+

#2005000
1!
1+
b1001 0
b0 1
03

#2010000
0!
b1011010 (
0+

#2015000
1!
1+
b101 0
13

#2020000
0!
1#
b1011011 (
0+
1-
b1000 8

#2025000
1!
1+
b100 0
14

#2030000
0!
b1011100 (
0+

#2035000
1!
1+
b11 0
15

#2040000
0!
b1011101 (
0+

#2045000
1!
1+
b10 0

#2050000
0!
b1011110 (
0+

#2055000
1!
1+
b1 0

#2060000
0!
b1011111 (
0+

#2065000
1!
1+
b0 0

#2070000
0!
b1100000 (
0+

#2075000
1!
1+
b1001 0
b1 1
b10111100 2

#2080000
0!
b1100001 (
0+

#2085000
1!
1+
b1000 0

#2090000
0!
b1100010 (
0+

#2095000
1!
1+
b111 0

#2100000
0!
b1100011 (
0+

#2105000
1!
1+
b110 0

#2110000
0!
b1100100 (
0+

#2115000
1!
1+
b101 0

#2120000
0!
b1100101 (
0+

#2125000
1!
1+
b100 0

#2130000
0!
b1100110 (
0+

#2135000
1!
1+
b11 0

#2140000
0!
b1100111 (
0+

#2145000
1!
1+
b10 0

#2150000
0!
b1101000 (
0+

#2155000
1!
1+
b1 0

#2160000
0!
b1101001 (
0+

#2165000
1!
1+
b0 0

#2170000
0!
b1101010 (
0+

#2175000
1!
1+
b1001 0
b10 1
b11011110 2

#2180000
0!
b1101011 (
0+

#2185000
1!
1+
b1000 0

#2190000
0!
b1101100 (
0+

#2195000
1!
1+
b111 0

#2200000
0!
b1101101 (
0+

#2205000
1!
1+
b110 0

#2210000
0!
b1101110 (
0+

#2215000
1!
1+
b101 0

#2220000
0!
b1101111 (
0+

#2225000
1!
1+
b100 0

#2230000
0!
b1110000 (
0+

#2235000
1!
1+
b11 0

#2240000
0!
b1110001 (
0+

#2245000
1!
1+
b10 0

#2250000
0!
b1110010 (
0+

#2255000
1!
1+
b1 0

#2260000
0!
b1110011 (
0+

#2265000
1!
1+
b0 0

#2270000
0!
b1110100 (
0+

#2275000
1!
1+
b1001 0
b11 1
b11101111 2

#2280000
0!
b1110101 (
0+

#2285000
1!
1+
b1000 0

#2290000
0!
b1110110 (
0+

#2295000
1!
1+
b111 0

#2300000
0!
b1110111 (
0+

#2305000
1!
1+
b110 0

#2310000
0!
b10 '
b1111000 (
0+

#2315000
1!
1+
b101 0

#2320000
0!
0+

#2325000
1!
1+
b100 0

#2330000
0!
0+

#2335000
1!
1+
b11 0

#2340000
0!
0+

#2345000
1!
1+
b10 0

#2350000
0!
0+

#2355000
1!
1+
b1 0

#2360000
0!
0#
b1 (
b110111001110110011000010110110001101001011001000010000001010011011101000110111101110000001000000100001001101001011101000010000000101000010001000110000101110100011000010010000001100100011010010111001101100011011000010111001001100100011001010110010000101001 *
0+
0-
b11111111 6
07

#2365000
1!
1+
b0 0
04

#2370000
0!
b10 (
0+

#2375000
1!
1+
b1001 0
b100 1
b11110111 2
05

#2380000
0!
b11 (
0+

#2385000
1!
1+
b1000 0

#2390000
0!
b100 (
0+

#2395000
1!
1+
b111 0

#2400000
0!
b101 (
0+

#2405000
1!
1+
b110 0

#2410000
0!
b110 (
0+

#2415000
1!
1+
b101 0

#2420000
0!
b111 (
0+

#2425000
1!
1+
b100 0

#2430000
0!
b1000 (
0+

#2435000
1!
1+
b11 0

#2440000
0!
b1001 (
0+

#2445000
1!
1+
b10 0

#2450000
0!
b1010 (
0+

#2455000
1!
1+
b1 0

#2460000
0!
1#
b1011 (
0+
1-
b0 8

#2465000
1!
1+
b0 0
14

#2470000
0!
b1100 (
0+

#2475000
1!
1+
b1001 0
b101 1
b1111011 2
15

#2480000
0!
b1101 (
0+

#2485000
1!
1+
b1000 0

#2490000
0!
b1110 (
0+

#2495000
1!
1+
b111 0

#2500000
0!
b1111 (
0+

#2505000
1!
1+
b110 0

#2510000
0!
b10000 (
0+

#2515000
1!
1+
b101 0

#2520000
0!
b10001 (
0+

#2525000
1!
1+
b100 0

#2530000
0!
b10010 (
0+

#2535000
1!
1+
b11 0

#2540000
0!
b10011 (
0+

#2545000
1!
1+
b10 0

#2550000
0!
b10100 (
0+

#2555000
1!
1+
b1 0

#2560000
0!
b10101 (
0+
b1 8

#2565000
1!
1+
b0 0

#2570000
0!
b10110 (
0+

#2575000
1!
1+
b1001 0
b110 1
b10111101 2

#2580000
0!
b10111 (
0+

#2585000
1!
1+
b1000 0

#2590000
0!
b11000 (
0+

#2595000
1!
1+
b111 0

#2600000
0!
b11001 (
0+

#2605000
1!
1+
b110 0

#2610000
0!
b11010 (
0+

#2615000
1!
1+
b101 0

#2620000
0!
b11011 (
0+

#2625000
1!
1+
b100 0

#2630000
0!
b11100 (
0+

#2635000
1!
1+
b11 0

#2640000
0!
b11101 (
0+

#2645000
1!
1+
b10 0

#2650000
0!
b11110 (
0+

#2655000
1!
1+
b1 0

#2660000
0!
b11111 (
0+
b10 8

#2665000
1!
1+
b0 0

#2670000
0!
b100000 (
0+

#2675000
1!
1+
b1001 0
b111 1
b11011110 2

#2680000
0!
b100001 (
0+

#2685000
1!
1+
b1000 0

#2690000
0!
b100010 (
0+

#2695000
1!
1+
b111 0

#2700000
0!
b100011 (
0+

#2705000
1!
1+
b110 0

#2710000
0!
b100100 (
0+

#2715000
1!
1+
b101 0

#2720000
0!
b100101 (
0+

#2725000
1!
1+
b100 0

#2730000
0!
b100110 (
0+

#2735000
1!
1+
b11 0

#2740000
0!
b100111 (
0+

#2745000
1!
1+
b10 0

#2750000
0!
b101000 (
0+

#2755000
1!
1+
b1 0

#2760000
0!
b101001 (
0+
b11 8

#2765000
1!
1+
b0 0

#2770000
0!
b101010 (
0+

#2775000
1!
1+
b1001 0
b1000 1
b11101111 2

#2780000
0!
b101011 (
0+

#2785000
1!
1+
b1000 0

#2790000
0!
b101100 (
0+

#2795000
1!
1+
b111 0

#2800000
0!
b101101 (
0+

#2805000
1!
1+
b110 0

#2810000
0!
b101110 (
0+

#2815000
1!
1+
b101 0

#2820000
0!
b101111 (
0+

#2825000
1!
1+
b100 0

#2830000
0!
b110000 (
0+

#2835000
1!
1+
b11 0

#2840000
0!
b110001 (
0+

#2845000
1!
1+
b10 0

#2850000
0!
b110010 (
0+

#2855000
1!
1+
b1 0

#2860000
0!
b110011 (
0+
b100 8

#2865000
1!
1+
b0 0

#2870000
0!
b110100 (
0+

#2875000
1!
b11101111 $
1%
1+
b11101111 .
1/
b1001 0
b0 1
03

#2880000
0!
b11 '
0+

#2885000
1!
0%
1+
0/

#2890000
0!
0+

#2895000
1!
1+

#2900000
0!
0+

#2905000
1!
1+

#2910000
0!
0+

#2915000
1!
1+

#2920000
0!
0+

#2925000
1!
1+

#2930000
0!
0+

#2935000
1!
1+

#2940000
0!
0+

#2945000
1!
1+

#2950000
0!
0+

#2955000
1!
1+

#2960000
0!
0+
b101 8

#2965000
1!
1+

#2970000
0!
0+

#2975000
1!
1+

#2980000
0!
0+

#2985000
1!
1+

#2990000
0!
0+

#2995000
1!
1+

#3000000
0!
0+

#3005000
1!
1+

#3010000
0!
0+

#3015000
1!
1+

#3020000
0!
0+

#3025000
1!
1+

#3030000
0!
0+

#3035000
1!
1+

#3040000
0!
0+

#3045000
1!
1+

#3050000
0!
0+

#3055000
1!
1+

#3060000
0!
0+
b110 8

#3065000
1!
1+

#3070000
0!
0+

#3075000
1!
1+

#3080000
0!
0+

#3085000
1!
1+

#3090000
0!
0+

#3095000
1!
1+

#3100000
0!
0+

#3105000
1!
1+

#3110000
0!
0+

#3115000
1!
1+

#3120000
0!
0+

#3125000
1!
1+

#3130000
0!
0+

#3135000
1!
1+

#3140000
0!
0+

#3145000
1!
1+

#3150000
0!
0+

#3155000
1!
1+

#3160000
0!
0+
b111 8

#3165000
1!
1+

#3170000
0!
0+

#3175000
1!
1+

#3180000
0!
0+

#3185000
1!
1+

#3190000
0!
0+

#3195000
1!
1+

#3200000
0!
0+

#3205000
1!
1+

#3210000
0!
0+

#3215000
1!
1+

#3220000
0!
0+

#3225000
1!
1+

#3230000
0!
0+

#3235000
1!
1+

#3240000
0!
0+

#3245000
1!
1+

#3250000
0!
0+

#3255000
1!
1+

#3260000
0!
0#
0+
0-
b1000 8

#3265000
1!
1+
04

#3270000
0!
0+

#3275000
1!
1+
05

#3280000
0!
0+

#3285000
1!
1+
b101 0
13

#3290000
0!
0+

#3295000
1!
1+
b100 0

#3300000
0!
0+

#3305000
1!
1+
b11 0

#3310000
0!
0+

#3315000
1!
1+
b10 0

#3320000
0!
0+

#3325000
1!
1+
b1 0

#3330000
0!
0+

#3335000
1!
1+
b0 0

#3340000
0!
0+

#3345000
1!
1+
b1001 0
b1 1
b1110111 2

#3350000
0!
0+

#3355000
1!
1+
b1000 0

#3360000
0!
1#
0+
1-

#3365000
1!
1+
b111 0
14

#3370000
0!
0+

#3375000
1!
1+
b110 0
15

#3380000
0!
0+

#3385000
1!
1+
b101 0

#3390000
0!
0+

#3395000
1!
1+
b100 0

#3400000
0!
0+

#3405000
1!
1+
b11 0

#3410000
0!
0+

#3415000
1!
1+
b10 0

#3420000
0!
0+

#3425000
1!
1+
b1 0

#3430000
0!
0+

#3435000
1!
1+
b0 0

#3440000
0!
0+

#3445000
1!
1+
b1001 0
b10 1
b10111011 2

#3450000
0!
0+

#3455000
1!
1+
b1000 0

#3460000
0!
0+

#3465000
1!
1+
b111 0

#3470000
0!
0+

#3475000
1!
1+
b110 0

#3480000
0!
0+

#3485000
1!
1+
b101 0

#3490000
0!
0+

#3495000
1!
1+
b100 0

#3500000
0!
0+

#3505000
1!
1+
b11 0

#3510000
0!
0+

#3515000
1!
1+
b10 0

#3520000
0!
0+

#3525000
1!
1+
b1 0

#3530000
0!
0+

#3535000
1!
1+
b0 0

#3540000
0!
0+

#3545000
1!
1+
b1001 0
b11 1
b11011101 2

#3550000
0!
0+

#3555000
1!
1+
b1000 0

#3560000
0!
0#
b1 (
b1000010011000010110001101101011001011010111010001101111001011010100001001100001011000110110101100111010001000000100001001111001011101000110010100100000001100010010000000101000001110000010011101101000001101010011010100101001 *
0+
0-
b1010101 6
17
b1010101 9

#3565000
1!
1+
b111 0
04

#3570000
0!
b10 (
0+

#3575000
1!
1+
b110 0
05

#3580000
0!
b11 (
0+

#3585000
1!
1+
b101 0

#3590000
0!
b100 (
0+

#3595000
1!
1+
b100 0

#3600000
0!
b101 (
0+

#3605000
1!
1+
b11 0

#3610000
0!
b110 (
0+

#3615000
1!
1+
b10 0

#3620000
0!
b111 (
0+

#3625000
1!
1+
b1 0

#3630000
0!
b1000 (
0+

#3635000
1!
1+
b0 0

#3640000
0!
b1001 (
0+

#3645000
1!
1+
b1001 0
b100 1
b1101110 2

#3650000
0!
b1010 (
0+

#3655000
1!
1+
b1000 0

#3660000
0!
1#
b1011 (
0+
1-
b0 8

#3665000
1!
1+
b111 0
14

#3670000
0!
b1100 (
0+

#3675000
1!
1+
b110 0
15

#3680000
0!
b1101 (
0+

#3685000
1!
1+
b101 0

#3690000
0!
b1110 (
0+

#3695000
1!
1+
b100 0

#3700000
0!
b1111 (
0+

#3705000
1!
1+
b11 0

#3710000
0!
b10000 (
0+

#3715000
1!
1+
b10 0

#3720000
0!
b10001 (
0+

#3725000
1!
1+
b1 0

#3730000
0!
b10010 (
0+

#3735000
1!
1+
b0 0

#3740000
0!
b10011 (
0+

#3745000
1!
1+
b1001 0
b101 1
b10110111 2

#3750000
0!
b10100 (
0+

#3755000
1!
1+
b1000 0

#3760000
0!
0#
b10101 (
0+
0-
b1 8

#3765000
1!
1+
b111 0
04

#3770000
0!
b10110 (
0+

#3775000
1!
1+
b110 0
05

#3780000
0!
b10111 (
0+

#3785000
1!
1+
b101 0

#3790000
0!
b11000 (
0+

#3795000
1!
1+
b100 0

#3800000
0!
b11001 (
0+

#3805000
1!
1+
b11 0

#3810000
0!
b11010 (
0+

#3815000
1!
1+
b10 0

#3820000
0!
b11011 (
0+

#3825000
1!
1+
b1 0

#3830000
0!
b11100 (
0+

#3835000
1!
1+
b0 0

#3840000
0!
b11101 (
0+

#3845000
1!
1+
b1001 0
b110 1
b1011011 2

#3850000
0!
b11110 (
0+

#3855000
1!
1+
b1000 0

#3860000
0!
1#
b11111 (
0+
1-
b10 8

#3865000
1!
1+
b111 0
14

#3870000
0!
b100000 (
0+

#3875000
1!
1+
b110 0
15

#3880000
0!
b100001 (
0+

#3885000
1!
1+
b101 0

#3890000
0!
b100010 (
0+

#3895000
1!
1+
b100 0

#3900000
0!
b100011 (
0+

#3905000
1!
1+
b11 0

#3910000
0!
b100100 (
0+

#3915000
1!
1+
b10 0

#3920000
0!
b100101 (
0+

#3925000
1!
1+
b1 0

#3930000
0!
b100110 (
0+

#3935000
1!
1+
b0 0

#3940000
0!
b100111 (
0+

#3945000
1!
1+
b1001 0
b111 1
b10101101 2

#3950000
0!
b101000 (
0+

#3955000
1!
1+
b1000 0

#3960000
0!
0#
b101001 (
0+
0-
b11 8

#3965000
1!
1+
b111 0
04

#3970000
0!
b101010 (
0+

#3975000
1!
1+
b110 0
05

#3980000
0!
b101011 (
0+

#3985000
1!
1+
b101 0

#3990000
0!
b101100 (
0+

#3995000
1!
1+
b100 0

#4000000
0!
b101101 (
0+

#4005000
1!
1+
b11 0

#4010000
0!
b101110 (
0+

#4015000
1!
1+
b10 0

#4020000
0!
b101111 (
0+

#4025000
1!
1+
b1 0

#4030000
0!
b110000 (
0+

#4035000
1!
1+
b0 0

#4040000
0!
b110001 (
0+

#4045000
1!
1+
b1001 0
b1000 1
b1010110 2

#4050000
0!
b110010 (
0+

#4055000
1!
1+
b1000 0

#4060000
0!
1#
b110011 (
0+
1-
b100 8

#4065000
1!
1+
b111 0
14

#4070000
0!
b110100 (
0+

#4075000
1!
1+
b110 0
15

#4080000
0!
b110101 (
0+

#4085000
1!
1+
b101 0

#4090000
0!
b110110 (
0+

#4095000
1!
1+
b100 0

#4100000
0!
b110111 (
0+

#4105000
1!
1+
b11 0

#4110000
0!
b111000 (
0+

#4115000
1!
1+
b10 0

#4120000
0!
b111001 (
0+

#4125000
1!
1+
b1 0

#4130000
0!
b111010 (
0+

#4135000
1!
1+
b0 0

#4140000
0!
b111011 (
0+

#4145000
1!
b1010110 $
1%
1+
b1010110 .
1/
b1001 0
b0 1
03

#4150000
0!
b100 '
b111100 (
0+

#4155000
1!
0%
1+
0/

#4160000
0!
0#
b0 (
b1000010011000010110001101101011001011010111010001101111001011010100001001100001011000110110101100111010001000000100001001111001011101000110010100100000001100100010000000101000001110000010011101101000010000010100000100101001 *
0+
0-
b101 8
b10101010 9

#4165000
1!
1+
04

#4170000
0!
b1 (
0+

#4175000
1!
1+
05

#4180000
0!
b10 (
0+

#4185000
1!
1+
b101 0
13

#4190000
0!
b11 (
0+

#4195000
1!
1+
b100 0

